﻿{
  "version": "1.0.0-*",
  "dependencies": {
    "LendFoundry.Notifications.Abstractions": "",
    "LendFoundry.Foundation.Persistence": "1.0.1-*",
    "LendFoundry.Foundation.Persistence.Mongo": "1.0.1-*",
    "Microsoft.Framework.DependencyInjection.Abstractions": "1.0.0-beta8",
    "Microsoft.CSharp": "4.0.1-beta"
  },
  "frameworks": {
    "dnx451": {}
  }
}
